%YAML 1.1
%TAG !u! tag:unity3d.com,2011:
--- !u!114 &11400000
MonoBehaviour:
  m_ObjectHideFlags: 0
  m_PrefabParentObject: {fileID: 0}
  m_PrefabInternal: {fileID: 0}
  m_GameObject: {fileID: 0}
  m_Enabled: 1
  m_EditorHideFlags: 0
  m_Script: {fileID: 11500000, guid: 2fbb2be698c926948831ff4e8f1d7162, type: 3}
  m_Name: GR-20180507-135704
  m_EditorClassIdentifier: 
  m_resourcesID: 515c85bd-182b-430a-90b8-cb94f7a19a33
  m_name: Gaia Resource
  m_seaLevel: 100
  m_beachHeight: 5
  m_terrainHeight: 1000
  m_texturePrototypes: []
  m_detailPrototypes: []
  m_treePrototypes: []
  m_gameObjectPrototypes: []
